{"H296": {"life": "24 Hours", "leadsTo": "Class 5", "mass": 3000000000, "jump": 1350000000},
"B274": {"life": "24 Hours", "leadsTo": "High-Sec", "mass": 2000000000, "jump": 300000000},
"B041": {"life": "48 Hours", "leadsTo": "Class 6", "mass": 3000000000, "jump": 1000000000},
"U319": {"life": "48 Hours", "leadsTo": "Class 6", "mass": 3000000000, "jump": 1800000000},
"Z142": {"life": "16 Hours", "leadsTo": "Null-Sec", "mass": 3000000000, "jump": 1350000000},
"N944": {"life": "24 Hours", "leadsTo": "Low-Sec", "mass": 3000000000, "jump": 1350000000},
"N770": {"life": "24 Hours", "leadsTo": "Class 5", "mass": 3000000000, "jump": 300000000},
"X702": {"life": "24 Hours", "leadsTo": "Class 3", "mass": 1000000000, "jump": 300000000},
"N290": {"life": "24 Hours", "leadsTo": "Low-Sec", "mass": 3000000000, "jump": 1800000000},
"N110": {"life": "24 Hours", "leadsTo": "High-Sec", "mass": 1000000000, "jump": 20000000},
"N062": {"life": "24 Hours", "leadsTo": "Class 5", "mass": 3000000000, "jump": 300000000},
"M555": {"life": "24 Hours", "leadsTo": "Class 5", "mass": 3000000000, "jump": 1000000000},
"L614": {"life": "24 Hours", "leadsTo": "Class 5", "mass": 1000000000, "jump": 20000000},
"N432": {"life": "24 Hours", "leadsTo": "Class 5", "mass": 3000000000, "jump": 1350000000},
"O128": {"life": "24 Hours", "leadsTo": "Class 4", "mass": 1000000000, "jump": 300000000},
"R474": {"life": "24 Hours", "leadsTo": "Class 6", "mass": 3000000000, "jump": 300000000},
"S047": {"life": "24 Hours", "leadsTo": "High-Sec", "mass": 3000000000, "jump": 300000000},
"Z060": {"life": "16 Hours", "leadsTo": "Null-Sec", "mass": 1000000000, "jump": 20000000},
"W237": {"life": "24 Hours", "leadsTo": "Class 6", "mass": 3000000000, "jump": 1350000000},
"V911": {"life": "24 Hours", "leadsTo": "Class 5", "mass": 3000000000, "jump": 1350000000},
"V753": {"life": "24 Hours", "leadsTo": "Class 6", "mass": 3000000000, "jump": 1350000000},
"V283": {"life": "16 Hours", "leadsTo": "Null-Sec", "mass": 3000000000, "jump": 1000000000},
"U574": {"life": "24 Hours", "leadsTo": "Class 6", "mass": 3000000000, "jump": 300000000},
"U210": {"life": "24 Hours", "leadsTo": "Low-Sec", "mass": 3000000000, "jump": 300000000},
"S804": {"life": "24 Hours", "leadsTo": "Class 6", "mass": 1000000000, "jump": 20000000},
"S199": {"life": "16 Hours", "leadsTo": "Null-Sec", "mass": 3000000000, "jump": 1350000000},
"K346": {"life": "16 Hours", "leadsTo": "Null-Sec", "mass": 3000000000, "jump": 300000000},
"K329": {"life": "16 Hours", "leadsTo": "Null-Sec", "mass": 5000000000, "jump": 1800000000},
"D792": {"life": "24 Hours", "leadsTo": "High-Sec", "mass": 3000000000, "jump": 1000000000},
"D845": {"life": "24 Hours", "leadsTo": "High-Sec", "mass": 5000000000, "jump": 300000000},
"B520": {"life": "48 Hours", "leadsTo": "High-Sec", "mass": 3000000000, "jump": 1350000000},
"E545": {"life": "16 Hours", "leadsTo": "Null-Sec", "mass": 2000000000, "jump": 300000000},
"A982": {"life": "24 Hours", "leadsTo": "Class 6", "mass": 3000000000, "jump": 300000000},
"A239": {"life": "24 Hours", "leadsTo": "Low-Sec", "mass": 2000000000, "jump": 300000000},
"C140": {"life": "24 Hours", "leadsTo": "Low-Sec", "mass": 3000000000, "jump": 1350000000},
"H900": {"life": "24 Hours", "leadsTo": "Class 5", "mass": 3000000000, "jump": 300000000},
"C391": {"life": "48 Hours", "leadsTo": "Low-Sec", "mass": 3000000000, "jump": 1000000000},
"C248": {"life": "16 Hours", "leadsTo": "Null-Sec", "mass": 3000000000, "jump": 1350000000},
"J244": {"life": "24 Hours", "leadsTo": "Low-Sec", "mass": 1000000000, "jump": 20000000},
"V301": {"life": "16 Hours", "leadsTo": "Class 1", "mass": 500000000, "jump": 20000000},
"B449": {"life": "16 Hours", "leadsTo": "High-Sec", "mass": 2000000000, "jump": 1000000000},
"C125": {"life": "16 Hours", "leadsTo": "Class 2", "mass": 1000000000, "jump": 20000000},
"L477": {"life": "16 Hours", "leadsTo": "Class 3", "mass": 2000000000, "jump": 300000000},
"X877": {"life": "16 Hours", "leadsTo": "Class 4", "mass": 2000000000, "jump": 300000000},
"Y683": {"life": "16 Hours", "leadsTo": "Class 4", "mass": 2000000000, "jump": 300000000},
"Y790": {"life": "16 Hours", "leadsTo": "Class 1", "mass": 500000000, "jump": 20000000},
"A641": {"life": "16 Hours", "leadsTo": "High-Sec", "mass": 2000000000, "jump": 1000000000},
"Z457": {"life": "16 Hours", "leadsTo": "Class 4", "mass": 2000000000, "jump": 300000000},
"Z647": {"life": "16 Hours", "leadsTo": "Class 1", "mass": 500000000, "jump": 20000000},
"Z971": {"life": "16 Hours", "leadsTo": "Class 1", "mass": 100000000, "jump": 20000000},
"C247": {"life": "16 Hours", "leadsTo": "Class 3", "mass": 2000000000, "jump": 300000000},
"T405": {"life": "16 Hours", "leadsTo": "Class 4", "mass": 2000000000, "jump": 300000000},
"M267": {"life": "16 Hours", "leadsTo": "Class 3", "mass": 1000000000, "jump": 300000000},
"M609": {"life": "16 Hours", "leadsTo": "Class 4", "mass": 1000000000, "jump": 20000000},
"H121": {"life": "16 Hours", "leadsTo": "Class 1", "mass": 500000000, "jump": 20000000},
"G024": {"life": "16 Hours", "leadsTo": "Class 2", "mass": 2000000000, "jump": 300000000},
"N766": {"life": "16 Hours", "leadsTo": "Class 2", "mass": 2000000000, "jump": 300000000},
"E175": {"life": "16 Hours", "leadsTo": "Class 4", "mass": 2000000000, "jump": 300000000},
"N968": {"life": "16 Hours", "leadsTo": "Class 3", "mass": 2000000000, "jump": 300000000},
"O477": {"life": "16 Hours", "leadsTo": "Class 3", "mass": 2000000000, "jump": 300000000},
"O883": {"life": "16 Hours", "leadsTo": "Class 3", "mass": 1000000000, "jump": 20000000},
"P060": {"life": "16 Hours", "leadsTo": "Class 1", "mass": 500000000, "jump": 20000000},
"Q317": {"life": "16 Hours", "leadsTo": "Class 1", "mass": 500000000, "jump": 20000000},
"R051": {"life": "16 Hours", "leadsTo": "Low-Sec", "mass": 3000000000, "jump": 1000000000},
"D382": {"life": "16 Hours", "leadsTo": "Class 2", "mass": 2000000000, "jump": 300000000},
"R943": {"life": "16 Hours", "leadsTo": "Class 2", "mass": 750000000, "jump": 300000000},
"D364": {"life": "16 Hours", "leadsTo": "Class 2", "mass": 1000000000, "jump": 300000000},
"I182": {"life": "16 Hours", "leadsTo": "Class 2", "mass": 2000000000, "jump": 300000000},
"Q003": {"life": "16 Hours", "leadsTo": "Null-Sec", "mass": 1000000000, "jump": 5000000},
"E004": {"life": "16 Hours", "leadsTo": "Class 1", "mass": 1000000000, "jump": 5000000},
"L005": {"life": "16 Hours", "leadsTo": "Class 2", "mass": 1000000000, "jump": 5000000},
"Z006": {"life": "16 Hours", "leadsTo": "Class 3", "mass": 1000000000, "jump": 5000000},
"M001": {"life": "16 Hours", "leadsTo": "Class 4", "mass": 1000000000, "jump": 5000000},
"C008": {"life": "16 Hours", "leadsTo": "Class 5", "mass": 1000000000, "jump": 5000000},
"G008": {"life": "16 Hours", "leadsTo": "Class 6", "mass": 1000000000, "jump": 5000000},
"A009": {"life": "16 Hours", "leadsTo": "Class 13", "mass": 500000000, "jump": 5000000},
"L031": {"life": "16 Hours", "leadsTo": "Thera", "mass": 3000000000, "jump": 1000000000},
"T458": {"life": "16 Hours", "leadsTo": "Thera", "mass": 500000000, "jump": 20000000},
"F135": {"life": "16 Hours", "leadsTo": "Thera", "mass": 750000000, "jump": 300000000},
"F353": {"life": "16 Hours", "leadsTo": "Thera", "mass": 100000000, "jump": 20000000},
"M164": {"life": "16 Hours", "leadsTo": "Thera", "mass": 2000000000, "jump": 300000000},
"Q063": {"life": "16 Hours", "leadsTo": "High-Sec", "mass": 500000000, "jump": 20000000},
"V898": {"life": "16 Hours", "leadsTo": "Low-Sec", "mass": 2000000000, "jump": 300000000},
"E587": {"life": "16 Hours", "leadsTo": "Null-Sec", "mass": 3000000000, "jump": 1000000000},
"B735": {"life": "16 Hours", "leadsTo": "Class 15", "mass": 750000000, "jump": 300000000},
"C414": {"life": "16 Hours", "leadsTo": "Class 17", "mass": 750000000, "jump": 300000000},
"R259": {"life": "16 Hours", "leadsTo": "Class 18", "mass": 750000000, "jump": 300000000},
"S877": {"life": "16 Hours", "leadsTo": "Class 14", "mass": 750000000, "jump": 300000000},
"V928": {"life": "16 Hours", "leadsTo": "Class 16", "mass": 750000000, "jump": 300000000},

"C729": {"life": "12 Hours", "leadsTo": "Triglavian", "mass": 1000000000, "jump": 410000000},
"F216": {"life": "16 Hours", "leadsTo": "Triglavian", "mass": 1000000000, "jump": 300000000},
"U372": {"life": "16 Hours", "leadsTo": "Triglavian", "mass": 1000000000, "jump": 300000000},
"R081": {"life": "16 Hours", "leadsTo": "Class 4", "mass": 1000000000, "jump": 300000000},
"X450": {"life": "16 Hours", "leadsTo": "Null-Sec", "mass": 1000000000, "jump": 300000000}



}
